386
0.05366778373718262
386
0.05370497703552246
388
0.0563044548034668
386
0.05542922019958496
386
0.056937456130981445
386
0.05725240707397461
391
0.05347418785095215
386
0.05956673622131348
386
0.0614323616027832
386
0.05693769454956055
