1755
0.6934070587158203
1992
0.6970369815826416
1952
0.7009475231170654
1949
0.7039706707000732
1932
0.6685237884521484
1947
0.7227945327758789
2064
0.7000982761383057
1818
0.7233855724334717
2064
0.700268030166626
1937
0.6988358497619629
