774
2.8879342079162598
774
2.8659181594848633
774
2.8419189453125
756
2.8889780044555664
774
2.8842780590057373
759
2.861020803451538
774
2.8676905632019043
774
2.884734869003296
754
2.9133410453796387
774
2.865457057952881
