834
2.8790693283081055
834
2.9219157695770264
834
2.858189344406128
761
2.881481885910034
834
2.856701135635376
834
2.937797784805298
834
2.9704978466033936
834
2.874911069869995
821
2.8905258178710938
834
2.903791666030884
