790
2.837536573410034
782
2.87825083732605
790
2.876680850982666
769
2.8533623218536377
790
2.8192176818847656
790
2.863065004348755
772
2.8756306171417236
790
2.8439159393310547
790
2.9134814739227295
790
2.8868885040283203
