2597
1.0684282779693604
2597
1.090348482131958
2597
1.0879569053649902
2597
0.9857778549194336
2597
1.0083661079406738
2597
1.010737419128418
2597
1.0279672145843506
2597
1.131606101989746
2597
1.1176471710205078
2597
1.0873918533325195
