1119
3.6717023849487305
1119
3.7052512168884277
1119
3.773961305618286
1119
3.706476926803589
1119
3.6927273273468018
1119
3.688410997390747
1119
3.716306209564209
1119
3.7151713371276855
1119
3.6879913806915283
1119
3.808440685272217
