1149
3.7130086421966553
1149
3.713970422744751
1149
3.7100861072540283
1149
3.6272318363189697
1149
3.6813488006591797
1149
3.727342367172241
1149
3.722014904022217
1149
3.7144696712493896
1149
3.673212766647339
1149
3.6847119331359863
