323
0.05301690101623535
323
0.055750370025634766
336
0.0578923225402832
326
0.05463886260986328
365
0.05493664741516113
328
0.0569760799407959
328
0.05524420738220215
326
0.05606436729431152
366
0.05497241020202637
336
0.0555572509765625
