329
0.058373451232910156
322
0.056391239166259766
331
0.05697226524353027
343
0.05649685859680176
338
0.05611872673034668
329
0.05452680587768555
331
0.05901360511779785
331
0.05833911895751953
331
0.058484792709350586
331
0.0567173957824707
