2256
0.8133296966552734
2274
0.7694787979125977
2276
0.9409403800964355
2050
0.7814857959747314
2237
0.7862770557403564
2032
0.8030416965484619
2113
0.7924296855926514
2122
0.8348641395568848
2075
0.8058676719665527
2178
0.8146078586578369
