828
3.3357460498809814
787
3.6589038372039795
910
3.3183794021606445
843
3.278562068939209
917
3.304875135421753
793
3.2651681900024414
833
3.2816452980041504
803
3.2888193130493164
934
3.2693004608154297
945
3.3167450428009033
