882
3.5605850219726562
950
3.348022222518921
825
3.2926065921783447
868
3.4835431575775146
900
3.6077985763549805
875
3.643615484237671
915
3.558260202407837
834
3.3448357582092285
861
3.4558820724487305
816
3.5036659240722656
