961
4.994269609451294
915
3.839573860168457
877
3.7406837940216064
927
3.6154448986053467
938
3.3638405799865723
860
3.8224236965179443
915
3.3811633586883545
882
3.45801043510437
932
3.6117827892303467
909
3.6877338886260986
