833
3.4558446407318115
940
3.801589250564575
972
3.473949670791626
935
3.411278247833252
949
3.4986743927001953
903
3.399536371231079
958
3.3265786170959473
939
3.360126495361328
974
3.30299711227417
894
3.310121536254883
